{"name":"Consultar Informacion","id":"consumir-api;consultar-informacion","testSteps":[{"number":1,"description":"Given Pedro realiza el llamado a la api","duration":207,"startTime":"2020-03-29T17:00:51.543-05:00[America/Bogota]","result":"SUCCESS","precondition":false,"level":0},{"number":2,"description":"When realiza la peticion request","duration":5485,"startTime":"2020-03-29T17:00:51.754-05:00[America/Bogota]","result":"SUCCESS","precondition":false,"level":0,"children":[{"number":3,"description":"Pedro consume service","duration":5116,"startTime":"2020-03-29T17:00:52.122-05:00[America/Bogota]","result":"SUCCESS","precondition":false,"level":1,"children":[{"number":4,"description":"Pedro executes a GET on the resource public-api/users?access-token\u003dor2lMmKePLSInCAE1tnt52pkKBQB8fn1EXJY","duration":5079,"startTime":"2020-03-29T17:00:52.154-05:00[America/Bogota]","result":"SUCCESS","precondition":false,"level":2,"children":[{"number":5,"description":"GET https://gorest.co.in/public-api/users?access-token\u003dor2lMmKePLSInCAE1tnt52pkKBQB8fn1EXJY\r\r","duration":1,"startTime":"2020-03-29T17:00:57.232-05:00[America/Bogota]","result":"SUCCESS","restQuery":{"method":"GET","path":"https://gorest.co.in/public-api/users?access-token\u003dor2lMmKePLSInCAE1tnt52pkKBQB8fn1EXJY\r\r","content":"\r","contentType":"null","requestHeaders":"Accept\u003d*/*\r\r","requestCookies":"\r\r","responseHeaders":"Server: nginx\nDate: Sun, 29 Mar 2020 22:01:06 GMT\nContent-Type: application/json; charset\u003dUTF-8\nTransfer-Encoding: chunked\nConnection: keep-alive\nVary: Accept-Encoding\nVary: Accept\nX-Rate-Limit-Limit: 30\nX-Rate-Limit-Remaining: 29\nX-Rate-Limit-Reset: 2\nX-Pagination-Total-Count: 2031\nX-Pagination-Page-Count: 102\nX-Pagination-Current-Page: 1\nX-Pagination-Per-Page: 20\nLink: \u003chttps://gorest.co.in/public-api/users?access-token\u003dor2lMmKePLSInCAE1tnt52pkKBQB8fn1EXJY\u0026page\u003d1\u003e; rel\u003dself, \u003chttps://gorest.co.in/public-api/users?access-token\u003dor2lMmKePLSInCAE1tnt52pkKBQB8fn1EXJY\u0026page\u003d2\u003e; rel\u003dnext, \u003chttps://gorest.co.in/public-api/users?access-token\u003dor2lMmKePLSInCAE1tnt52pkKBQB8fn1EXJY\u0026page\u003d102\u003e; rel\u003dlast\nSet-Cookie: _csrf\u003d4950680ed734b013f1c5c1fecb9417f5df18d98c73dcc5b196dc71651a993840a%3A2%3A%7Bi%3A0%3Bs%3A5%3A%22_csrf%22%3Bi%3A1%3Bs%3A32%3A%22aT948e2YvD9mSapUgL9hn5gIBd-Dd8AC%22%3B%7D; path\u003d/; HttpOnly\nX-Frame-Options: sameorigin\nContent-Encoding: gzip\r","responseCookies":"_csrf\u003d4950680ed734b013f1c5c1fecb9417f5df18d98c73dcc5b196dc71651a993840a%3A2%3A%7Bi%3A0%3Bs%3A5%3A%22_csrf%22%3Bi%3A1%3Bs%3A32%3A%22aT948e2YvD9mSapUgL9hn5gIBd-Dd8AC%22%3B%7D;Path\u003d/;HttpOnly\r","responseBody":"{\n    \"_meta\": {\n        \"success\": true,\n        \"code\": 200,\n        \"message\": \"OK. Everything worked as expected.\",\n        \"totalCount\": 2031,\n        \"pageCount\": 102,\n        \"currentPage\": 1,\n        \"perPage\": 20,\n        \"rateLimit\": {\n            \"limit\": 30,\n            \"remaining\": 29,\n            \"reset\": 2\n        }\n    },\n    \"result\": [\n        {\n            \"id\": \"449\",\n            \"first_name\": \"Katlyn\",\n            \"last_name\": \"Stehr\",\n            \"gender\": \"female\",\n            \"dob\": \"1948-12-01\",\n            \"email\": \"darion.schuppe@example.org\",\n            \"phone\": \"205-517-5995 x868\",\n            \"website\": \"http://www.conn.com/consequatur-fugit-maxime-blanditiis-aut\",\n            \"address\": \"8501 Willy Gateway\\nMaximoburgh, NE 13135\",\n            \"status\": \"inactive\",\n            \"_links\": {\n                \"self\": {\n                    \"href\": \"https://gorest.co.in/public-api/users/449\"\n                },\n                \"edit\": {\n                    \"href\": \"https://gorest.co.in/public-api/users/449\"\n                },\n                \"avatar\": {\n                    \"href\": \"https://lorempixel.com/250/250/people/?57826\"\n                }\n            }\n        },\n        {\n            \"id\": \"451\",\n            \"first_name\": \"Carolanne\",\n            \"last_name\": \"Ankunding\",\n            \"gender\": \"female\",\n            \"dob\": \"1991-02-20\",\n            \"email\": \"ottis.lubowitz@example.org\",\n            \"phone\": \"407-317-3439\",\n            \"website\": \"http://cronin.com/ipsum-est-eaque-sed-occaecati\",\n            \"address\": \"95860 Lindgren Road Suite 170\\nWest Corineborough, NJ 15652\",\n            \"status\": \"active\",\n            \"_links\": {\n                \"self\": {\n                    \"href\": \"https://gorest.co.in/public-api/users/451\"\n                },\n                \"edit\": {\n                    \"href\": \"https://gorest.co.in/public-api/users/451\"\n                },\n                \"avatar\": {\n                    \"href\": \"https://lorempixel.com/250/250/people/?27866\"\n                }\n            }\n        },\n        {\n            \"id\": \"452\",\n            \"first_name\": \"Estelle\",\n            \"last_name\": \"Torphy\",\n            \"gender\": \"female\",\n            \"dob\": \"1967-06-29\",\n            \"email\": \"mccullough.margie@example.org\",\n            \"phone\": \"+12142388927\",\n            \"website\": \"http://doyle.biz/\",\n            \"address\": \"78418 Schowalter Garden Suite 104\\nJakubowskihaven, MI 66066\",\n            \"status\": \"active\",\n            \"_links\": {\n                \"self\": {\n                    \"href\": \"https://gorest.co.in/public-api/users/452\"\n                },\n                \"edit\": {\n                    \"href\": \"https://gorest.co.in/public-api/users/452\"\n                },\n                \"avatar\": {\n                    \"href\": \"https://lorempixel.com/250/250/people/?55256\"\n                }\n            }\n        },\n        {\n            \"id\": \"453\",\n            \"first_name\": \"Halie\",\n            \"last_name\": \"Lind\",\n            \"gender\": \"female\",\n            \"dob\": \"1931-09-14\",\n            \"email\": \"albin01@example.com\",\n            \"phone\": \"1-770-235-4327 x29433\",\n            \"website\": \"http://www.kulas.net/\",\n            \"address\": \"1240 Gerhold Cliff\\nLaishashire, MI 67537-9725\",\n            \"status\": \"active\",\n            \"_links\": {\n                \"self\": {\n                    \"href\": \"https://gorest.co.in/public-api/users/453\"\n                },\n                \"edit\": {\n                    \"href\": \"https://gorest.co.in/public-api/users/453\"\n                },\n                \"avatar\": {\n                    \"href\": \"https://lorempixel.com/250/250/people/?88615\"\n                }\n            }\n        },\n        {\n            \"id\": \"454\",\n            \"first_name\": \"Bonita\",\n            \"last_name\": \"Steuber\",\n            \"gender\": \"female\",\n            \"dob\": \"2014-05-21\",\n            \"email\": \"muller.lupe@example.com\",\n            \"phone\": \"(957) 496-2498 x95576\",\n            \"website\": \"https://beer.com/est-molestiae-et-eligendi-sit-sed-earum.html\",\n            \"address\": \"7193 Zachariah Ferry\\nDaphneyport, UT 19157-6064\",\n            \"status\": \"active\",\n            \"_links\": {\n                \"self\": {\n                    \"href\": \"https://gorest.co.in/public-api/users/454\"\n                },\n                \"edit\": {\n                    \"href\": \"https://gorest.co.in/public-api/users/454\"\n                },\n                \"avatar\": {\n                    \"href\": \"https://lorempixel.com/250/250/people/?66988\"\n                }\n            }\n        },\n        {\n            \"id\": \"455\",\n            \"first_name\": \"Fermin\",\n            \"last_name\": \"Mertz\",\n            \"gender\": \"male\",\n            \"dob\": \"2015-07-12\",\n            \"email\": \"kiel71@example.net\",\n            \"phone\": \"537-419-9946\",\n            \"website\": \"http://vandervort.com/accusantium-corrupti-id-molestiae-sequi-nesciunt-illum-sit-est.html\",\n            \"address\": \"3490 Leonel Tunnel Suite 780\\nNorth Steve, AZ 41450\",\n            \"status\": \"active\",\n            \"_links\": {\n                \"self\": {\n                    \"href\": \"https://gorest.co.in/public-api/users/455\"\n                },\n                \"edit\": {\n                    \"href\": \"https://gorest.co.in/public-api/users/455\"\n                },\n                \"avatar\": {\n                    \"href\": \"https://lorempixel.com/250/250/people/?48277\"\n                }\n            }\n        },\n        {\n            \"id\": \"456\",\n            \"first_name\": \"Juliana\",\n            \"last_name\": \"Kling\",\n            \"gender\": \"female\",\n            \"dob\": \"1970-12-08\",\n            \"email\": \"vivianne.kreiger@example.org\",\n            \"phone\": \"(535) 250-0939 x78727\",\n            \"website\": \"http://block.com/sint-illo-eveniet-officiis-laborum.html\",\n            \"address\": \"19241 Welch Springs Suite 853\\nNew Cartertown, OK 22137\",\n            \"status\": \"inactive\",\n            \"_links\": {\n                \"self\": {\n                    \"href\": \"https://gorest.co.in/public-api/users/456\"\n                },\n                \"edit\": {\n                    \"href\": \"https://gorest.co.in/public-api/users/456\"\n                },\n                \"avatar\": {\n                    \"href\": \"https://lorempixel.com/250/250/people/?77598\"\n                }\n            }\n        },\n        {\n            \"id\": \"457\",\n            \"first_name\": \"Fabiola\",\n            \"last_name\": \"Kunde\",\n            \"gender\": \"female\",\n            \"dob\": \"2014-02-14\",\n            \"email\": \"genoveva.jakubowski@example.net\",\n            \"phone\": \"889-593-2400\",\n            \"website\": \"http://torp.com/\",\n            \"address\": \"2924 Ferry Curve\\nSwaniawskiburgh, NJ 92689-2223\",\n            \"status\": \"active\",\n            \"_links\": {\n                \"self\": {\n                    \"href\": \"https://gorest.co.in/public-api/users/457\"\n                },\n                \"edit\": {\n                    \"href\": \"https://gorest.co.in/public-api/users/457\"\n                },\n                \"avatar\": {\n                    \"href\": \"https://lorempixel.com/250/250/people/?17154\"\n                }\n            }\n        },\n        {\n            \"id\": \"458\",\n            \"first_name\": \"Ramiro\",\n            \"last_name\": \"Watsica\",\n            \"gender\": \"male\",\n            \"dob\": \"1963-09-29\",\n            \"email\": \"lzboncak@example.org\",\n            \"phone\": \"734.857.9924 x48796\",\n            \"website\": \"http://rolfson.com/tempora-iste-nihil-id-necessitatibus-perspiciatis-autem.html\",\n            \"address\": \"3437 Daugherty Bridge\\nNew Tillmanborough, OH 30765\",\n            \"status\": \"active\",\n            \"_links\": {\n                \"self\": {\n                    \"href\": \"https://gorest.co.in/public-api/users/458\"\n                },\n                \"edit\": {\n                    \"href\": \"https://gorest.co.in/public-api/users/458\"\n                },\n                \"avatar\": {\n                    \"href\": \"https://lorempixel.com/250/250/people/?75861\"\n                }\n            }\n        },\n        {\n            \"id\": \"459\",\n            \"first_name\": \"Sadie\",\n            \"last_name\": \"Goldner\",\n            \"gender\": \"female\",\n            \"dob\": \"1984-08-13\",\n            \"email\": \"uvandervort@example.net\",\n            \"phone\": \"+1.447.584.5000\",\n            \"website\": \"http://www.schmidt.com/eos-beatae-nesciunt-repudiandae-maiores-a-modi\",\n            \"address\": \"46393 Doyle Motorway Apt. 426\\nSouth Noechester, MO 40191\",\n            \"status\": \"inactive\",\n            \"_links\": {\n                \"self\": {\n                    \"href\": \"https://gorest.co.in/public-api/users/459\"\n                },\n                \"edit\": {\n                    \"href\": \"https://gorest.co.in/public-api/users/459\"\n                },\n                \"avatar\": {\n                    \"href\": \"https://lorempixel.com/250/250/people/?19650\"\n                }\n            }\n        },\n        {\n            \"id\": \"460\",\n            \"first_name\": \"Maximo\",\n            \"last_name\": \"Stiedemann\",\n            \"gender\": \"male\",\n            \"dob\": \"1997-05-16\",\n            \"email\": \"tanner.johnston@example.org\",\n            \"phone\": \"937.754.1040\",\n            \"website\": \"http://stroman.com/nobis-numquam-asperiores-deleniti-ipsam\",\n            \"address\": \"6030 Micah Islands\\nGavinfurt, RI 72167\",\n            \"status\": \"active\",\n            \"_links\": {\n                \"self\": {\n                    \"href\": \"https://gorest.co.in/public-api/users/460\"\n                },\n                \"edit\": {\n                    \"href\": \"https://gorest.co.in/public-api/users/460\"\n                },\n                \"avatar\": {\n                    \"href\": \"https://lorempixel.com/250/250/people/?74765\"\n                }\n            }\n        },\n        {\n            \"id\": \"461\",\n            \"first_name\": \"Kay\",\n            \"last_name\": \"Dietrich\",\n            \"gender\": \"male\",\n            \"dob\": \"1948-06-10\",\n            \"email\": \"ekoelpin@example.net\",\n            \"phone\": \"469-444-9862 x0488\",\n            \"website\": \"https://www.romaguera.biz/reiciendis-voluptatibus-nemo-quaerat-non-saepe-et-quis-dignissimos\",\n            \"address\": \"289 Ruecker Trail Suite 599\\nCassandraland, WY 71845-7255\",\n            \"status\": \"inactive\",\n            \"_links\": {\n                \"self\": {\n                    \"href\": \"https://gorest.co.in/public-api/users/461\"\n                },\n                \"edit\": {\n                    \"href\": \"https://gorest.co.in/public-api/users/461\"\n                },\n                \"avatar\": {\n                    \"href\": \"https://lorempixel.com/250/250/people/?70958\"\n                }\n            }\n        },\n        {\n            \"id\": \"462\",\n            \"first_name\": \"Araceli\",\n            \"last_name\": \"Hickle\",\n            \"gender\": \"female\",\n            \"dob\": \"1923-09-08\",\n            \"email\": \"kilback.raquel@example.org\",\n            \"phone\": \"+1.987.261.8602\",\n            \"website\": \"https://durgan.com/voluptas-nesciunt-ut-qui-ut.html\",\n            \"address\": \"131 Reichel Village Apt. 028\\nColechester, DC 43886-1582\",\n            \"status\": \"inactive\",\n            \"_links\": {\n                \"self\": {\n                    \"href\": \"https://gorest.co.in/public-api/users/462\"\n                },\n                \"edit\": {\n                    \"href\": \"https://gorest.co.in/public-api/users/462\"\n                },\n                \"avatar\": {\n                    \"href\": \"https://lorempixel.com/250/250/people/?52797\"\n                }\n            }\n        },\n        {\n            \"id\": \"463\",\n            \"first_name\": \"Claudia\",\n            \"last_name\": \"Ondricka\",\n            \"gender\": \"female\",\n            \"dob\": \"2011-03-25\",\n            \"email\": \"bednar.arlie@example.net\",\n            \"phone\": \"934-316-6778\",\n            \"website\": \"https://www.hilpert.com/rem-error-ad-quis-ea-tempore-doloribus-aut-necessitatibus\",\n            \"address\": \"785 Walker Throughway Apt. 659\\nNew Haskell, CO 36370\",\n            \"status\": \"active\",\n            \"_links\": {\n                \"self\": {\n                    \"href\": \"https://gorest.co.in/public-api/users/463\"\n                },\n                \"edit\": {\n                    \"href\": \"https://gorest.co.in/public-api/users/463\"\n                },\n                \"avatar\": {\n                    \"href\": \"https://lorempixel.com/250/250/people/?96983\"\n                }\n            }\n        },\n        {\n            \"id\": \"464\",\n            \"first_name\": \"Jacinthe\",\n            \"last_name\": \"Heathcote\",\n            \"gender\": \"female\",\n            \"dob\": \"1925-08-24\",\n            \"email\": \"ara.schmidt@example.com\",\n            \"phone\": \"(791) 350-2269 x86326\",\n            \"website\": \"http://www.lueilwitz.com/expedita-molestias-qui-maxime-harum-ad-alias\",\n            \"address\": \"8537 Reggie Islands Suite 124\\nEast Rosinafort, WI 15790-3077\",\n            \"status\": \"inactive\",\n            \"_links\": {\n                \"self\": {\n                    \"href\": \"https://gorest.co.in/public-api/users/464\"\n                },\n                \"edit\": {\n                    \"href\": \"https://gorest.co.in/public-api/users/464\"\n                },\n                \"avatar\": {\n                    \"href\": \"https://lorempixel.com/250/250/people/?83371\"\n                }\n            }\n        },\n        {\n            \"id\": \"465\",\n            \"first_name\": \"Billie\",\n            \"last_name\": \"Koch\",\n            \"gender\": \"female\",\n            \"dob\": \"1990-10-18\",\n            \"email\": \"prosacco.demetrius@example.org\",\n            \"phone\": \"835-742-4211\",\n            \"website\": \"http://www.daugherty.com/\",\n            \"address\": \"22637 Ernser Gateway\\nLorenastad, WI 42100-1775\",\n            \"status\": \"inactive\",\n            \"_links\": {\n                \"self\": {\n                    \"href\": \"https://gorest.co.in/public-api/users/465\"\n                },\n                \"edit\": {\n                    \"href\": \"https://gorest.co.in/public-api/users/465\"\n                },\n                \"avatar\": {\n                    \"href\": \"https://lorempixel.com/250/250/people/?11973\"\n                }\n            }\n        },\n        {\n            \"id\": \"466\",\n            \"first_name\": \"Wilmer\",\n            \"last_name\": \"Kulas\",\n            \"gender\": \"male\",\n            \"dob\": \"1945-07-27\",\n            \"email\": \"parker.brannon@example.com\",\n            \"phone\": \"595.269.0672 x89456\",\n            \"website\": \"https://hessel.com/necessitatibus-nihil-qui-tenetur-consequatur.html\",\n            \"address\": \"91405 Jovanny Skyway Apt. 214\\nSatterfieldfurt, LA 02369\",\n            \"status\": \"active\",\n            \"_links\": {\n                \"self\": {\n                    \"href\": \"https://gorest.co.in/public-api/users/466\"\n                },\n                \"edit\": {\n                    \"href\": \"https://gorest.co.in/public-api/users/466\"\n                },\n                \"avatar\": {\n                    \"href\": \"https://lorempixel.com/250/250/people/?90133\"\n                }\n            }\n        },\n        {\n            \"id\": \"467\",\n            \"first_name\": \"Vilma\",\n            \"last_name\": \"Cremin\",\n            \"gender\": \"female\",\n            \"dob\": \"1991-05-09\",\n            \"email\": \"owiegand@example.com\",\n            \"phone\": \"+1 (805) 903-2042\",\n            \"website\": \"http://botsford.biz/unde-neque-ut-dolorum\",\n            \"address\": \"54651 Hayes Place Suite 791\\nNorth Fredrick, SD 85681-0104\",\n            \"status\": \"active\",\n            \"_links\": {\n                \"self\": {\n                    \"href\": \"https://gorest.co.in/public-api/users/467\"\n                },\n                \"edit\": {\n                    \"href\": \"https://gorest.co.in/public-api/users/467\"\n                },\n                \"avatar\": {\n                    \"href\": \"https://lorempixel.com/250/250/people/?79190\"\n                }\n            }\n        },\n        {\n            \"id\": \"468\",\n            \"first_name\": \"Jayson\",\n            \"last_name\": \"Borer\",\n            \"gender\": \"male\",\n            \"dob\": \"1983-10-03\",\n            \"email\": \"willms.maximo@example.org\",\n            \"phone\": \"(919) 966-2671\",\n            \"website\": \"https://www.pollich.org/sit-laborum-quidem-et\",\n            \"address\": \"403 Gulgowski Hill\\nLake Jadynview, RI 97792\",\n            \"status\": \"active\",\n            \"_links\": {\n                \"self\": {\n                    \"href\": \"https://gorest.co.in/public-api/users/468\"\n                },\n                \"edit\": {\n                    \"href\": \"https://gorest.co.in/public-api/users/468\"\n                },\n                \"avatar\": {\n                    \"href\": \"https://lorempixel.com/250/250/people/?69459\"\n                }\n            }\n        },\n        {\n            \"id\": \"469\",\n            \"first_name\": \"Angel\",\n            \"last_name\": \"Pouros\",\n            \"gender\": \"male\",\n            \"dob\": \"2012-07-08\",\n            \"email\": \"bheaney@example.com\",\n            \"phone\": \"(234) 492-2200\",\n            \"website\": \"http://www.rice.com/deleniti-quos-voluptate-repellat-saepe-totam-autem-vel.html\",\n            \"address\": \"68913 Michaela Plaza\\nEast Hillarytown, VA 78718-0749\",\n            \"status\": \"inactive\",\n            \"_links\": {\n                \"self\": {\n                    \"href\": \"https://gorest.co.in/public-api/users/469\"\n                },\n                \"edit\": {\n                    \"href\": \"https://gorest.co.in/public-api/users/469\"\n                },\n                \"avatar\": {\n                    \"href\": \"https://lorempixel.com/250/250/people/?11674\"\n                }\n            }\n        }\n    ]\n}","statusCode":200},"precondition":false,"level":3}]}]}]},{"number":6,"description":"Then Obtiene la respuesta con el nombre Claudia y apellido Kulas","duration":686,"startTime":"2020-03-29T17:00:57.240-05:00[America/Bogota]","result":"SUCCESS","precondition":false,"level":0,"children":[{"number":7,"description":"Conexion correcta","duration":545,"startTime":"2020-03-29T17:00:57.380-05:00[America/Bogota]","result":"SUCCESS","precondition":false,"level":1}]}],"userStory":{"id":"consumir-api","storyName":"Consumir Api","path":"src/test/resources/com/sophos/www/features/ConsumeService.feature","type":"feature"},"featureTag":{"name":"Features/Consumir Api","type":"feature","displayName":"Features/Consumir Api"},"title":"Consultar Informacion","startTime":"2020-03-29T17:00:51.351-05:00[America/Bogota]","duration":6577,"projectKey":"","isManualTestingUpToDate":false,"manual":false,"testSource":"Cucumber","actors":[{"name":"Pedro","can":["browse the web","call an API at https://gorest.co.in/"]}],"result":"SUCCESS"}